<?xml version="1.0" encoding="utf-8"?>
<!-- Generator: Adobe Illustrator 22.1.0, SVG Export Plug-In . SVG Version: 6.00 Build 0)  -->
<svg version="1.1" id="Capa_1" xmlns="http://www.w3.org/2000/svg" xmlns:xlink="http://www.w3.org/1999/xlink" x="0px" y="0px"
	 viewBox="0 0 150 150" style="enable-background:new 0 0 150 150;" xml:space="preserve">
<style type="text/css">
	.st0{fill:#FFFFFF;}
</style>
<g>
	<g>
		<path class="st0" d="M144.9,91.5c-0.1-0.2-0.2-0.3-0.2-0.4c-3.9-4.8-10.9-5.5-15.8-1.6c-6,4.9-14.8,12-20.6,16.7
			c-4,3.2-9,5.1-14.2,5.3l-15.5,0.5c-0.6,0-1.2-0.3-1.5-0.8l-1.7-3c-0.3-0.5-0.3-1.1-0.1-1.6c0.2-0.5,0.7-0.9,1.2-1l16-3
			c5.6-1.1,9.6-6.4,8.9-12.2c-0.6-5.6-5.3-9.7-10.9-9.7c-0.2,0-0.3,0-0.5,0l-21.4-0.9c-8.5-0.3-15.8,1.3-24.4,5.5L33,90.6
			c-1.6-3.3-4.9-5.4-8.5-5.4H12.2c-5.2,0-9.4,4.1-9.4,9.3v46.1c0,5.2,4.2,9.3,9.4,9.3h12.4c5.2,0,9.3-4.2,9.4-9.3v-3.1l11.9-2.2
			c3.8-0.6,6.3-0.8,10.3-0.6l32.5,1.5c11.7,0.5,23.2-3.4,32.1-10.9l22.5-18.7l0,0C147.9,102.9,148.5,96.1,144.9,91.5z M27.9,140.7
			c0,1.8-1.5,3.3-3.3,3.3H12.1c-1.8,0-3.3-1.5-3.3-3.3v-46c0-1.8,1.5-3.3,3.3-3.3h12.5c1.8,0,3.3,1.5,3.3,3.3V140.7z M139.5,102.1
			L117,120.7c-7.8,6.5-17.8,9.9-28,9.5l-32.5-1.5c-4.6-0.2-7.3,0.1-11.6,0.7c0,0-0.1,0-0.1,0l-10.9,2V96.9l12.9-6.3
			c7.6-3.7,14.1-5.1,21.5-4.9l21.5,0.9c0.1,0,0.3,0,0.4,0c0,0,0.2,0,0.2,0c2.5,0,4.6,1.9,4.9,4.4c0.3,2.6-1.5,5-4,5.5l-16,3
			c-4.2,0.8-7,4.9-6.2,9.1c0.2,0.9,0.5,1.7,0.9,2.5l1.7,2.9c1.5,2.4,4.1,3.9,7,3.8l15.5-0.5c6.5-0.2,12.7-2.6,17.8-6.6
			c5.7-4.6,14.5-11.7,20.6-16.7c2.2-1.7,5.3-1.4,7.1,0.6c0.1,0.1,0.2,0.2,0.2,0.4C141.8,97.2,141.5,100.3,139.5,102.1z"/>
	</g>
</g>
<g>
	<g>
		<path class="st0" d="M99,0C77.2,0,59.5,17.8,59.5,39.6S77.2,79.1,99,79.1s39.6-17.8,39.6-39.6S120.8,0,99,0z M99.1,73.1
			c-18.5,0-33.5-15-33.5-33.5c0,0,0,0,0,0C65.5,21.1,80.5,6.1,99,6c18.5,0,33.5,15,33.5,33.5S117.6,73.1,99.1,73.1z"/>
	</g>
</g>
<g>
	<g>
		<path class="st0" d="M110.9,30.2h-4.1c-0.3-1.5-0.9-2.9-1.8-4.2h5.8c1.7,0,3-1.4,3-3c0-1.7-1.4-3-3-3H87.2c-1.7,0-3,1.4-3,3
			c0,1.7,1.4,3,3,3H94c2.8,0,5.3,1.8,6.4,4.2H87.2c-1.7,0-3,1.4-3,3c0,1.7,1.4,3,3,3h13.2c-0.4,0.7-0.8,1.3-1.4,1.9
			c-1.4,1.3-3.2,2.1-5.1,2h-6.8c-1.7,0-3.1,1.4-3,3.1c0,0.8,0.4,1.6,0.9,2.2l16.9,16c1.2,1.1,3.1,1.1,4.3-0.1
			c1.1-1.2,1.1-3.1-0.1-4.3L94.8,46.3c3.2-0.2,6.2-1.5,8.5-3.8c1.7-1.7,2.9-3.9,3.5-6.2h4.1c1.7,0,3-1.4,3-3S112.5,30.2,110.9,30.2z
			"/>
	</g>
</g>
</svg>
