<?xml version="1.0" encoding="iso-8859-1"?>
<!-- Generator: Adobe Illustrator 19.0.0, SVG Export Plug-In . SVG Version: 6.00 Build 0)  -->
<svg xmlns="http://www.w3.org/2000/svg" xmlns:xlink="http://www.w3.org/1999/xlink" version="1.1" id="Capa_1" x="0px" y="0px" viewBox="0 0 511.998 511.998" style="enable-background:new 0 0 511.998 511.998;" xml:space="preserve" width="512px" height="512px">
<g>
	<g>
		<path d="M509.794,475.097l-40.623-50.559c3.569-4.648,6.221-10.001,7.784-15.832c3.122-11.654,1.52-23.827-4.513-34.276    c-9.389-16.262-27.432-24.473-44.986-22.197c-0.651-1.662-1.411-3.284-2.307-4.837c-4.757-8.24-12.439-14.134-21.629-16.596    c-3.51-0.94-7.079-1.333-10.609-1.2l-13.134-16.35l-18.213-112.007c-1.128-6.932-2.597-13.89-4.368-20.68    c-0.051-0.195-0.108-0.389-0.17-0.58L311.824,41.561c-4.252-13.021-16.311-21.77-30.009-21.77c-9.207,0-17.93,4.003-23.934,10.984    c-0.672,0.781-1.295,1.594-1.882,2.428c-0.587-0.834-1.21-1.647-1.882-2.428c-6.004-6.981-14.727-10.984-23.934-10.984    c-13.697,0-25.757,8.749-30.009,21.77l-45.201,138.423c-0.063,0.191-0.12,0.385-0.17,0.58c-1.771,6.788-3.24,13.746-4.368,20.68    l-18.213,112.007l-13.134,16.35c-3.53-0.133-7.099,0.259-10.609,1.199c-9.19,2.462-16.872,8.357-21.629,16.596    c-0.891,1.544-1.648,3.156-2.297,4.809c-5.799-0.761-11.749-0.38-17.57,1.179c-11.654,3.123-21.395,10.598-27.427,21.046    c-6.032,10.448-7.635,22.622-4.513,34.276c1.562,5.828,4.212,11.178,7.778,15.825L2.204,475.098c-2.41,3-2.884,7.116-1.221,10.585    c1.663,3.47,5.169,5.677,9.017,5.677h119.217c2.787,0,5.447-1.163,7.339-3.208l3.354-3.625l2.785,1.608    c6.96,4.019,14.684,6.071,22.512,6.071c3.923,0,7.873-0.516,11.765-1.559c11.654-3.123,21.395-10.598,27.427-21.046    c0.009-0.016,0.017-0.032,0.026-0.048c0.003-0.005,0.007-0.01,0.01-0.016c0.008-0.014,0.014-0.03,0.022-0.044    c6.405-11.164,7.492-23.947,4.067-35.409c3.914-2.888,7.23-6.564,9.699-10.84c4.757-8.24,6.021-17.839,3.559-27.029    c-0.055-0.207-0.122-0.409-0.181-0.615c17.471-22.909,25.933-54.764,26.308-56.203c0.111-0.425,0.194-0.856,0.248-1.292    l7.841-63.059l7.841,63.059c0.054,0.436,0.137,0.867,0.248,1.292c0.375,1.439,8.841,33.309,26.32,56.219    c-2.572,8.97-1.658,18.928,3.365,27.628c2.469,4.275,5.785,7.952,9.699,10.839c-3.424,11.462-2.338,24.245,4.067,35.409    c0.008,0.014,0.014,0.03,0.022,0.044c0.003,0.005,0.007,0.01,0.01,0.016c0.009,0.016,0.017,0.032,0.026,0.048    c6.033,10.449,15.773,17.923,27.427,21.046c3.892,1.042,7.841,1.559,11.765,1.559c7.827,0,15.552-2.053,22.512-6.071l2.785-1.608    l3.354,3.625c1.893,2.045,4.553,3.208,7.339,3.208h119.217c3.848,0,7.354-2.208,9.018-5.678    C512.679,482.213,512.204,478.097,509.794,475.097z M30.859,471.361l27.324-34.018l58.92,34.018H30.859z M190.269,450    l-67.941-38.562c-4.802-2.726-10.907-1.042-13.633,3.761s-1.042,10.907,3.761,13.633l67.743,38.45    c-7.808,5.731-18.59,6.678-27.504,1.533l-86.606-50.002c-0.584-0.337-1.153-0.704-1.709-1.087    c-0.072-0.05-0.146-0.097-0.217-0.148c-0.528-0.371-1.039-0.764-1.534-1.172c-4.011-3.305-6.895-7.757-8.267-12.877    c-1.74-6.494-0.847-13.277,2.515-19.1c4.657-8.066,13.134-12.58,21.84-12.58c3.642,0,7.322,0.798,10.781,2.449    c0.09,0.043,0.182,0.079,0.271,0.123c0.502,0.247,1,0.512,1.491,0.796l86.605,50.002c0.443,0.256,0.875,0.528,1.301,0.81    c0.115,0.076,0.228,0.156,0.342,0.234c0.317,0.217,0.629,0.44,0.934,0.671c0.114,0.086,0.229,0.172,0.341,0.259    c0.348,0.272,0.688,0.552,1.021,0.84c0.05,0.044,0.103,0.085,0.153,0.129c0.365,0.322,0.718,0.657,1.063,1    c0.131,0.13,0.257,0.264,0.384,0.396c0.204,0.211,0.404,0.426,0.601,0.645c0.159,0.177,0.317,0.355,0.47,0.536    c0.139,0.164,0.273,0.333,0.408,0.5c0.648,0.807,1.245,1.646,1.784,2.518c0.036,0.057,0.071,0.115,0.106,0.173    C189.68,438.723,190.93,444.397,190.269,450z M200.905,413.247c-0.676,1.171-1.48,2.23-2.396,3.164    c-0.008-0.009-0.018-0.017-0.026-0.026c-0.688-0.746-1.411-1.462-2.152-2.164c-0.153-0.145-0.307-0.289-0.462-0.431    c-1.497-1.378-3.101-2.665-4.81-3.851c-0.193-0.134-0.387-0.267-0.582-0.398c-0.849-0.57-1.713-1.124-2.611-1.642l-84.544-48.812    c0.246-0.574,0.53-1.138,0.849-1.69c2.086-3.613,5.455-6.198,9.485-7.278c2.502-0.67,5.072-0.709,7.526-0.144    c0.102,0.023,0.201,0.056,0.302,0.081c0.345,0.087,0.689,0.184,1.029,0.294c0.152,0.049,0.302,0.104,0.453,0.159    c0.302,0.109,0.601,0.227,0.898,0.355c0.135,0.059,0.272,0.115,0.406,0.177c0.419,0.195,0.835,0.404,1.24,0.638l69.678,40.229    c0.415,0.24,0.809,0.501,1.193,0.772c0.11,0.077,0.218,0.158,0.325,0.238c0.298,0.222,0.586,0.453,0.864,0.692    c0.081,0.07,0.166,0.137,0.246,0.208c0.34,0.305,0.664,0.624,0.972,0.954c0.075,0.081,0.145,0.166,0.219,0.248    c0.238,0.267,0.467,0.54,0.685,0.821c0.082,0.106,0.164,0.212,0.244,0.32c0.236,0.32,0.46,0.648,0.669,0.983    c0.032,0.05,0.067,0.098,0.098,0.149C203.579,402.017,203.86,408.129,200.905,413.247z M245.876,194.379l-17.478,140.555    c-1.059,3.807-7.342,25.317-18.646,42.783c-0.661-0.531-1.345-1.037-2.047-1.523c-0.13-0.09-0.26-0.178-0.391-0.266    c-0.693-0.467-1.397-0.919-2.128-1.341l-65.981-38.094l10.26-12.772c1.083-1.347,1.797-2.952,2.075-4.658l18.635-114.609    c1.012-6.22,2.325-12.46,3.905-18.554l45.106-138.132c1.558-4.771,5.978-7.978,10.997-7.978c3.423,0,6.538,1.429,8.77,4.025    c2.232,2.596,3.18,5.89,2.668,9.275l-11.577,76.495c-0.036,0.238-0.064,0.477-0.083,0.716l-2.066,26.402    c-16.81,1.078-31.064,13.991-33.218,31.308l-10.157,81.678c-0.052,0.417-0.077,0.832-0.077,1.242    c-0.002,4.975,3.704,9.286,8.767,9.915c5.473,0.679,10.476-3.208,11.157-8.689l10.156-81.678c0.333-2.675,1.32-5.112,2.78-7.17    c3.219-4.537,8.743-7.229,14.628-6.582c0.071,0.008,0.143,0.017,0.214,0.025c0.755,0.094,1.521,0.247,2.273,0.455    c0.048,0.013,0.095,0.025,0.143,0.038C241.907,179.353,246.847,186.565,245.876,194.379z M256,167.643    c-2.443-2.547-5.262-4.746-8.389-6.491l2.263-28.929L256,91.746l6.126,40.477l2.264,28.929    C261.263,162.898,258.443,165.096,256,167.643z M306.812,374.586c-0.722,0.417-1.416,0.862-2.097,1.321    c-0.159,0.107-0.317,0.215-0.475,0.324c-0.675,0.471-1.336,0.956-1.97,1.466c-0.007,0.005-0.014,0.01-0.021,0.015    c-11.272-17.441-17.591-38.99-18.651-42.785l-17.475-140.548c-0.972-7.814,3.968-15.026,11.312-17.132    c0.047-0.012,0.095-0.025,0.143-0.038c0.747-0.206,1.505-0.358,2.253-0.452c0.006,0,0.012-0.001,0.018-0.002    c8.635-1.077,16.549,5.083,17.624,13.726l10.156,81.678c0.682,5.481,5.678,9.374,11.157,8.689c5.064-0.629,8.77-4.94,8.767-9.915    c0-0.41-0.025-0.825-0.077-1.242l-10.157-81.679c-0.028-0.229-0.059-0.458-0.092-0.686c-0.838-5.828-3.049-11.136-6.265-15.641    c-6.15-8.615-15.968-14.283-26.861-14.98l-2.066-26.402c-0.019-0.24-0.046-0.479-0.083-0.716l-11.577-76.495    c-0.512-3.385,0.436-6.679,2.668-9.275s5.347-4.025,8.771-4.025c5.02,0,9.439,3.206,10.997,7.978l45.107,138.13    c1.58,6.095,2.894,12.335,3.904,18.553l18.637,114.609c0.277,1.706,0.992,3.31,2.074,4.658l10.26,12.772L306.812,374.586z     M320.941,409.94c-1.711,1.188-3.317,2.477-4.815,3.857c-0.15,0.138-0.299,0.277-0.447,0.417    c-0.747,0.707-1.475,1.428-2.166,2.178c-0.009,0.006-0.015,0.012-0.021,0.018c-0.917-0.934-1.721-1.993-2.397-3.165    c-2.954-5.118-2.673-11.229,0.203-15.953c0.031-0.051,0.066-0.099,0.098-0.149c0.21-0.336,0.434-0.663,0.669-0.983    c0.08-0.108,0.162-0.214,0.244-0.32c0.218-0.28,0.446-0.553,0.684-0.819c0.074-0.083,0.145-0.168,0.22-0.249    c0.308-0.33,0.632-0.648,0.972-0.954c0.08-0.072,0.164-0.138,0.246-0.208c0.278-0.24,0.566-0.47,0.864-0.692    c0.108-0.08,0.215-0.16,0.325-0.238c0.384-0.271,0.778-0.532,1.193-0.772l69.678-40.229c0.323-0.187,0.653-0.359,0.987-0.522    c0.1-0.049,0.202-0.091,0.302-0.137c0.238-0.11,0.477-0.217,0.719-0.314c0.116-0.047,0.234-0.089,0.351-0.132    c0.233-0.087,0.468-0.171,0.705-0.247c0.118-0.038,0.237-0.073,0.356-0.108c0.244-0.072,0.49-0.138,0.737-0.198    c1.188-0.288,2.404-0.441,3.628-0.441c1.357,0,2.723,0.179,4.068,0.539c4.03,1.08,7.398,3.664,9.485,7.278    c0.319,0.552,0.602,1.116,0.849,1.69l-84.544,48.812c-0.006,0.003-0.011,0.007-0.017,0.011c-0.891,0.515-1.749,1.065-2.591,1.63    C321.33,409.672,321.135,409.805,320.941,409.94z M359.303,468.815c-8.913,5.147-19.695,4.198-27.505-1.534l67.743-38.45    c4.803-2.726,6.487-8.83,3.761-13.633c-2.727-4.803-8.83-6.487-13.633-3.761L321.728,450c-0.66-5.595,0.586-11.261,3.484-16.049    c0.044-0.072,0.088-0.144,0.132-0.215c0.189-0.305,0.382-0.608,0.585-0.906c0.017-0.025,0.035-0.048,0.052-0.073    c0.352-0.514,0.728-1.012,1.12-1.501c0.141-0.175,0.28-0.351,0.426-0.523c0.151-0.178,0.306-0.352,0.462-0.527    c0.199-0.221,0.402-0.439,0.609-0.653c0.126-0.131,0.25-0.263,0.379-0.391c0.346-0.343,0.699-0.678,1.064-1.001    c0.051-0.045,0.105-0.087,0.156-0.132c0.331-0.288,0.67-0.567,1.017-0.837c0.113-0.089,0.229-0.175,0.344-0.262    c0.305-0.23,0.615-0.452,0.931-0.668c0.115-0.079,0.228-0.159,0.345-0.236c0.425-0.281,0.857-0.553,1.3-0.809h-0.001    l86.604-50.001c0.075-0.043,0.154-0.08,0.23-0.123c0.418-0.236,0.838-0.465,1.263-0.674c0.096-0.047,0.194-0.086,0.29-0.131    c3.453-1.644,7.125-2.44,10.761-2.44c8.705,0,17.184,4.515,21.841,12.581c3.361,5.822,4.254,12.605,2.515,19.1    c-1.372,5.122-4.258,9.575-8.271,12.88c-0.492,0.406-1.001,0.797-1.528,1.168c-0.075,0.053-0.152,0.103-0.228,0.155    c-0.553,0.38-1.118,0.745-1.701,1.081L359.303,468.815z M394.895,471.361l58.912-34.013l27.328,34.013H394.895z" fill="#FFFFFF"/>
	</g>
</g>
<g>
	<g>
		<path d="M436.029,399.832c-0.13-0.63-0.32-1.26-0.57-1.87c-0.25-0.6-0.56-1.18-0.92-1.72c-0.37-0.55-0.79-1.06-1.25-1.52    c-0.46-0.46-0.97-0.88-1.52-1.25c-0.54-0.36-1.12-0.67-1.72-0.92c-0.61-0.25-1.24-0.44-1.87-0.57c-1.29-0.26-2.62-0.26-3.91,0    c-0.64,0.13-1.27,0.32-1.87,0.57c-0.61,0.25-1.19,0.56-1.73,0.92c-0.55,0.37-1.06,0.79-1.52,1.25c-0.46,0.46-0.88,0.97-1.24,1.52    c-0.36,0.54-0.67,1.12-0.92,1.72c-0.25,0.61-0.44,1.24-0.57,1.87c-0.13,0.65-0.2,1.31-0.2,1.96c0,0.65,0.07,1.31,0.2,1.95    s0.32,1.27,0.57,1.87c0.25,0.61,0.56,1.19,0.92,1.73c0.36,0.55,0.78,1.06,1.24,1.52c0.46,0.46,0.97,0.88,1.52,1.24    c0.54,0.36,1.12,0.67,1.73,0.92c0.6,0.25,1.23,0.44,1.87,0.57s1.3,0.2,1.95,0.2s1.31-0.07,1.96-0.2c0.63-0.13,1.26-0.32,1.87-0.57    c0.6-0.25,1.18-0.56,1.72-0.92c0.55-0.36,1.06-0.78,1.52-1.24c0.46-0.46,0.88-0.97,1.25-1.52c0.36-0.54,0.67-1.12,0.92-1.73    c0.25-0.6,0.44-1.23,0.57-1.87c0.13-0.64,0.19-1.3,0.19-1.95S436.159,400.482,436.029,399.832z" fill="#FFFFFF"/>
	</g>
</g>
<g>
	<g>
		<path d="M95.579,399.832c-0.13-0.63-0.32-1.26-0.57-1.87c-0.25-0.6-0.56-1.18-0.92-1.72c-0.36-0.55-0.78-1.06-1.24-1.52    c-0.46-0.46-0.97-0.88-1.52-1.25c-0.54-0.36-1.12-0.67-1.73-0.92c-0.6-0.25-1.23-0.44-1.87-0.57c-1.29-0.26-2.62-0.26-3.91,0    c-0.63,0.13-1.26,0.32-1.87,0.57c-0.6,0.25-1.18,0.56-1.72,0.92c-0.55,0.37-1.06,0.79-1.52,1.25c-0.46,0.46-0.88,0.97-1.25,1.52    c-0.36,0.54-0.67,1.12-0.92,1.72c-0.25,0.61-0.44,1.24-0.57,1.87c-0.13,0.65-0.19,1.31-0.19,1.96c0,0.65,0.06,1.31,0.19,1.95    s0.32,1.27,0.57,1.87c0.25,0.61,0.56,1.19,0.92,1.73c0.37,0.55,0.79,1.06,1.25,1.52c0.46,0.46,0.97,0.88,1.52,1.24    c0.54,0.36,1.12,0.67,1.72,0.92c0.61,0.25,1.24,0.44,1.87,0.57c0.65,0.13,1.31,0.2,1.96,0.2c0.65,0,1.31-0.07,1.95-0.2    s1.27-0.32,1.87-0.57c0.61-0.25,1.19-0.56,1.73-0.92c0.55-0.36,1.06-0.78,1.52-1.24c0.461-0.46,0.88-0.97,1.24-1.52    c0.36-0.54,0.67-1.12,0.92-1.73c0.25-0.6,0.44-1.23,0.57-1.87c0.13-0.64,0.2-1.3,0.2-1.95S95.709,400.482,95.579,399.832z" fill="#FFFFFF"/>
	</g>
</g>
<g>
</g>
<g>
</g>
<g>
</g>
<g>
</g>
<g>
</g>
<g>
</g>
<g>
</g>
<g>
</g>
<g>
</g>
<g>
</g>
<g>
</g>
<g>
</g>
<g>
</g>
<g>
</g>
<g>
</g>
</svg>
