<?xml version="1.0" encoding="utf-8"?>
<!-- Generator: Adobe Illustrator 22.1.0, SVG Export Plug-In . SVG Version: 6.00 Build 0)  -->
<svg version="1.0" id="Layer_2" xmlns="http://www.w3.org/2000/svg" xmlns:xlink="http://www.w3.org/1999/xlink" x="0px" y="0px"
	 viewBox="0 0 38.1 26.2" style="enable-background:new 0 0 38.1 26.2;" xml:space="preserve">
<style type="text/css">
	.st0{fill:#BE2165;}
</style>
<path class="st0" d="M16.9,0c1.4,0,2.9,0,4.3,0l0.3,0.1c2.2,0.1,4.5,0.4,6.7,0.8c1.1,0.2,2,0.7,2.6,1.7c0.7,1.3,1.4,2.6,2,4
	c0.2,0.4,0.3,0.8,0.5,1.2c0.2-0.3,0.4-0.5,0.6-0.7c0.1-0.2,0.3-0.2,0.5-0.2c0.5,0,0.9,0,1.4,0.1c0.6,0.1,1.3,0.3,1.8,0.5
	c0.6,0.3,0.7,0.8,0.3,1.3c-0.3,0.4-0.7,0.6-1.1,0.9c-0.2,0.1-0.4,0.2-0.7,0.3c1,0.7,1.5,1.8,1.7,2.9c0.1,0.6,0.2,1.2,0.3,1.8
	c0,0.9,0,1.9,0,2.8L38,17.7c-0.1,2.4-0.5,4.7-0.3,7.1c0,0.7-0.2,1.1-0.8,1.4c-1.9,0-3.8,0-5.7,0c-0.7-0.3-0.9-0.9-0.8-1.6
	c-7.6-0.4-15.2-0.4-22.8,0c0.1,0.8-0.1,1.3-0.8,1.6c-1.9,0-3.8,0-5.7,0C0.7,26,0.4,25.6,0.4,25c0.1-2-0.1-4-0.3-5.9
	C0.1,18.5,0,18,0,17.5c0-0.9,0-1.9,0-2.8c0-0.1,0.1-0.2,0.1-0.3c0.2-1.7,0.5-3.3,2-4.4C1.9,9.8,1.7,9.8,1.6,9.7
	C1.2,9.5,0.7,9.2,0.4,8.9C-0.2,8.3,0,7.7,0.7,7.3c0.2-0.1,0.4-0.2,0.6-0.2c0.9-0.1,1.7-0.2,2.6-0.3c0.1,0,0.3,0.1,0.3,0.2
	c0.2,0.2,0.4,0.5,0.6,0.8C4.9,7.5,5,7.5,5,7.4C5.7,5.7,6.4,4,7.4,2.5C8,1.6,8.7,1,9.8,0.9c1.8-0.3,3.6-0.5,5.4-0.7
	C15.7,0.1,16.3,0,16.9,0z M31.4,8.1c-0.7-1.7-1.4-3.3-2.4-4.8C28.7,3,28.3,2.8,28,2.7c-1.9-0.3-3.9-0.6-5.9-0.7c-4-0.3-8,0-11.9,0.7
	C9.7,2.8,9.2,3,8.9,3.6C8.3,4.9,7.6,6.2,7,7.5C6.9,7.7,6.8,7.9,6.8,8.1C15,7.5,23.1,7.5,31.4,8.1z M31.8,17.3L31.8,17.3
	c0.6,0,1.2,0,1.8,0c0.9,0,2.1-1.5,1.8-2.4c-0.1-0.2-0.3-0.3-0.5-0.4c-0.1-0.1-0.3,0-0.5,0c-1.1,0.1-2.3,0.3-3.4,0.4
	c-0.9,0.1-1.4,0.6-1.7,1.4c-0.2,0.6,0,1,0.7,1C30.6,17.3,31.2,17.3,31.8,17.3z M6.3,17.3L6.3,17.3c0.6,0,1.2,0,1.9,0
	c0.5,0,0.7-0.3,0.7-0.6c0-0.8-0.7-1.5-1.4-1.7c-1.3-0.2-2.6-0.4-4-0.5c-0.6-0.1-0.9,0.3-0.7,0.9c0.1,0.4,0.3,0.7,0.5,1.1
	c0.3,0.5,0.7,0.8,1.3,0.8C5.1,17.3,5.7,17.3,6.3,17.3z M6.9,19.9c0.7,0,1.4,0,2.1,0c0.3,0,0.5-0.1,0.6-0.5C9.6,19.2,9.4,19,9,19
	c-1.4,0-2.8,0-4.2,0c-0.4,0-0.6,0.2-0.6,0.5c0,0.3,0.2,0.5,0.6,0.5C5.5,19.9,6.2,19.9,6.9,19.9z M31.2,19.9c0.7,0,1.4,0,2.1,0
	c0.3,0,0.6-0.2,0.6-0.5c0-0.3-0.2-0.5-0.5-0.5c-1.4,0-2.8,0-4.3,0c-0.3,0-0.5,0.1-0.5,0.5c0,0.3,0.2,0.5,0.6,0.5
	C29.8,19.9,30.5,19.9,31.2,19.9z"/>
</svg>
