<svg xmlns="http://www.w3.org/2000/svg" width="121" height="4" viewBox="0 0 121 4">
  <metadata><?xpacket begin="﻿" id="W5M0MpCehiHzreSzNTczkc9d"?>
<x:xmpmeta xmlns:x="adobe:ns:meta/" x:xmptk="Adobe XMP Core 5.6-c140 79.160451, 2017/05/06-01:08:21        ">
   <rdf:RDF xmlns:rdf="http://www.w3.org/1999/02/22-rdf-syntax-ns#">
      <rdf:Description rdf:about=""/>
   </rdf:RDF>
</x:xmpmeta>
                                                                                                    
                                                                                                    
                                                                                                    
                                                                                                    
                                                                                                    
                                                                                                    
                                                                                                    
                                                                                                    
                                                                                                    
                                                                                                    
                                                                                                    
                                                                                                    
                                                                                                    
                                                                                                    
                                                                                                    
                                                                                                    
                                                                                                    
                                                                                                    
                                                                                                    
                                                                                                    
                           
<?xpacket end="w"?></metadata>
<defs>
    <style>
      .cls-1 {
        fill: #e40073;
      }

      .cls-1, .cls-2, .cls-3, .cls-4 {
        fill-rule: evenodd;
      }

      .cls-2 {
        fill: #169fd8;
      }

      .cls-3 {
        fill: #fccf0f;
      }

      .cls-4 {
        fill: #6db33f;
      }
    </style>
  </defs>
  <path id="Shape_1_copy_7" data-name="Shape 1 copy 7" class="cls-1" d="M0.293,3.491V0.641H63.951V3.491H0.293Z"/>
  <path id="Shape_1_copy_8" data-name="Shape 1 copy 8" class="cls-2" d="M63.963,3.491V0.641h19V3.491h-19Z"/>
  <path id="Shape_1_copy_9" data-name="Shape 1 copy 9" class="cls-3" d="M82.97,3.491V0.641h19V3.491h-19Z"/>
  <path id="Shape_1_copy_10" data-name="Shape 1 copy 10" class="cls-4" d="M101.978,3.491V0.641h19V3.491h-19Z"/>
</svg>
