<?xml version="1.0" encoding="utf-8"?>
<!-- Generator: Adobe Illustrator 22.1.0, SVG Export Plug-In . SVG Version: 6.00 Build 0)  -->
<svg version="1.1" id="Layer_1" xmlns="http://www.w3.org/2000/svg" xmlns:xlink="http://www.w3.org/1999/xlink" x="0px" y="0px"
	 viewBox="0 0 109 128.7" style="enable-background:new 0 0 109 128.7;" xml:space="preserve">
<style type="text/css">
	.st0{fill:#E71C35;}
</style>
<path class="st0" d="M63,66.1H46.1c-0.3,1.8-0.3,3.7,0,5.5H63C63.2,69.8,63.2,67.9,63,66.1z M63,66.1H46.1c-0.3,1.8-0.3,3.7,0,5.5
	H63C63.2,69.8,63.2,67.9,63,66.1z M63,66.1H46.1c-0.3,1.8-0.3,3.7,0,5.5H63C63.2,69.8,63.2,67.9,63,66.1z M63,66.1H46.1
	c-0.3,1.8-0.3,3.7,0,5.5H63C63.2,69.8,63.2,67.9,63,66.1z M107,108L93,83.8c-4.6-8-9.3-16.1-14-24.2c-0.4-0.6-0.7-1.2-0.8-1.9
	c-0.2-0.6-0.3-1.2-0.3-1.9V35.6c0-6.8,0-13.5,0-20.2c1.9-0.7,3.4-2,4.4-3.6C83.1,10,83.5,8,83,6c-0.4-1.8-1.5-3.3-2.8-4.3
	c-1.4-1-3.1-1.6-5-1.6H33.5c-2.1,0-4,0.9-5.4,2.3c-1.4,1.4-2.3,3.4-2.3,5.4c0,1.9,0.5,3.6,1.6,5c0.9,1.1,2.1,1.9,3.6,2.6V25
	c0,10.2,0,20.4,0,30.6c0,0.8-0.1,1.4-0.3,2.1c-0.2,0.6-0.4,1.3-0.8,1.9c-2.2,3.7-4.8,8.3-7.4,12.8l-3,5.2l-4.7,8.1
	C11.1,92.4,7.2,99.1,2,108.1c-1,1.7-1.6,3.4-1.9,5.2c-0.3,1.8-0.2,3.6,0.4,5.5c0.8,3.1,2.6,5.6,5,7.3c2.3,1.7,5.3,2.7,8.7,2.7H96
	c1.6,0,3.2-0.4,4.6-1c1.5-0.6,2.8-1.5,4-2.6c2.4-2.3,3.8-5.1,4.2-8C109.3,114.1,108.7,111,107,108z M47.5,35.5
	c1.7,4.2,4.6,7.7,8.5,10.2c1.7,1.1,3.3,2.4,4.8,3.9c10.7,10.8,10.5,28.2-0.3,38.8c-1.1-1-2.3-1.9-3.5-2.7c-0.4-0.2-0.7-0.4-1-0.7
	c2.4-2.2,4.3-4.9,5.5-7.9h-14c1.7,4.2,4.7,7.7,8.5,10.2c9.9,6.3,14.7,18.2,11.9,29.7l-5.8,0c1-3,1.2-6.1,0.8-9.2H46
	c-0.4,3.1-0.1,6.3,0.8,9.2h-5.7c-2.3-9.4,0.5-19.3,7.4-26c1.1,1,2.3,1.9,3.5,2.7c0.4,0.2,0.7,0.4,1.1,0.7c-2.4,2.2-4.3,4.9-5.6,7.9
	l7.6,0h6.4C59.8,98,56.8,94.4,53,92c-1.8-1.1-3.4-2.4-4.8-3.8c-10.7-10.8-10.5-28.2,0.3-38.8c1.4,1.2,3,2.3,4.6,3.3
	c-2.4,2.2-4.4,4.9-5.6,8h14c-1.7-4.2-4.7-7.7-8.5-10.2C43.1,44,38.3,32.1,41.1,20.7h5.7c-0.9,3-1.2,6.1-0.8,9.2l10.7,0H63
	c0.4-3.1,0.1-6.3-0.8-9.3h5.7c2.3,9.4-0.6,19.3-7.4,26.1c-1.4-1.3-3-2.3-4.6-3.3c2.4-2.2,4.3-4.9,5.6-8H47.5z M46,71.6H63
	c0.3-1.8,0.2-3.7,0-5.5H46.1C45.8,67.9,45.8,69.7,46,71.6z M63,66.1H46.1c-0.3,1.8-0.3,3.7,0,5.5H63C63.2,69.8,63.2,67.9,63,66.1z
	 M63,66.1H46.1c-0.3,1.8-0.3,3.7,0,5.5H63C63.2,69.8,63.2,67.9,63,66.1z"/>
</svg>
