<?xml version="1.0" encoding="utf-8"?>
<!-- Generator: Adobe Illustrator 22.1.0, SVG Export Plug-In . SVG Version: 6.00 Build 0)  -->
<svg version="1.0" id="Layer_1" xmlns="http://www.w3.org/2000/svg" xmlns:xlink="http://www.w3.org/1999/xlink" x="0px" y="0px"
	 viewBox="0 0 132.4 132.7" style="enable-background:new 0 0 132.4 132.7;" xml:space="preserve">
<style type="text/css">
	.st0{fill-rule:evenodd;clip-rule:evenodd;fill:#FFFFFF;}
	.st1{opacity:0.8;fill-rule:evenodd;clip-rule:evenodd;fill:#EB5A21;}
	.st2{opacity:0.8;fill-rule:evenodd;clip-rule:evenodd;fill:#F58227;}
	.st3{opacity:0.8;fill-rule:evenodd;clip-rule:evenodd;fill:#F99F20;}
	.st4{opacity:0.8;fill-rule:evenodd;clip-rule:evenodd;fill:#FDB936;}
	.st5{opacity:0.8;fill-rule:evenodd;clip-rule:evenodd;fill:#FFC713;}
	.st6{opacity:0.8;fill-rule:evenodd;clip-rule:evenodd;fill:#F37021;}
	.st7{opacity:0.8;fill-rule:evenodd;clip-rule:evenodd;fill:#F8984E;}
	.st8{opacity:0.38;fill-rule:evenodd;clip-rule:evenodd;fill:#EB5A21;}
	.st9{opacity:0.38;fill-rule:evenodd;clip-rule:evenodd;fill:#F58227;}
	.st10{opacity:0.38;fill-rule:evenodd;clip-rule:evenodd;fill:#F99F20;}
	.st11{opacity:0.38;fill-rule:evenodd;clip-rule:evenodd;fill:#FDB936;}
	.st12{opacity:0.38;fill-rule:evenodd;clip-rule:evenodd;fill:#FFC713;}
	.st13{opacity:0.38;fill-rule:evenodd;clip-rule:evenodd;fill:#F37021;}
	.st14{opacity:0.38;fill-rule:evenodd;clip-rule:evenodd;fill:#F8984E;}
</style>
<g>
	<path class="st0" d="M123.1,58.8c3.4,2,6.5,4.5,9.4,7.4c-2.8,2.9-6,5.5-9.3,7.6c2.7,2.9,5.1,6.1,7.1,9.6c-3.5,2.1-7.2,3.8-11,4.9
		c1.9,3.5,3.4,7.2,4.4,11.2c-3.9,1.1-7.9,1.8-11.9,1.9c0.9,3.8,1.4,7.8,1.4,11.9c-4.1,0.1-8.1-0.4-12-1.3c-0.1,4-0.7,8-1.7,11.9
		c-4-1-7.7-2.4-11.2-4.3c-1.1,3.8-2.7,7.5-4.7,11c-3.5-2-6.8-4.3-9.7-7.1c-2,3.4-4.5,6.6-7.4,9.4c-2.9-2.8-5.5-6-7.6-9.4
		c-2.9,2.8-6.1,5.2-9.6,7.2c-2.1-3.5-3.7-7.2-4.9-11c-3.5,1.9-7.2,3.4-11.1,4.4c-1.1-3.9-1.7-7.9-1.8-11.9c-3.9,1-7.9,1.4-11.9,1.4
		c-0.1-4.1,0.4-8.1,1.3-12c-3.9-0.1-7.9-0.7-11.8-1.7c1-3.9,2.4-7.7,4.3-11.2c-3.8-1.1-7.5-2.7-11-4.7c2-3.6,4.4-6.9,7.1-9.8
		c-3.4-2-6.5-4.5-9.4-7.4c2.8-2.9,6-5.5,9.3-7.6c-2.7-2.9-5.1-6.1-7.1-9.6c3.5-2.1,7.2-3.8,11-4.9c-1.9-3.5-3.4-7.2-4.4-11.2
		c3.9-1.1,7.9-1.8,11.9-1.9c-0.9-3.8-1.4-7.8-1.4-11.9c4.1-0.1,8.1,0.4,12,1.3c0.1-4,0.7-8,1.7-11.9c4,1,7.7,2.4,11.2,4.3
		c1.1-3.8,2.7-7.5,4.7-11c3.5,2,6.8,4.3,9.7,7.1c2-3.4,4.5-6.6,7.4-9.4c2.9,2.8,5.5,6,7.6,9.4c2.9-2.8,6.1-5.2,9.6-7.2
		c2.1,3.5,3.7,7.2,4.9,11c3.5-1.9,7.2-3.4,11.1-4.4c1.1,3.9,1.7,7.9,1.8,11.9c3.9-1,7.9-1.4,11.9-1.4c0.1,4.1-0.4,8.1-1.3,12
		c3.9,0.1,7.9,0.7,11.8,1.7c-1,3.9-2.4,7.7-4.3,11.2c3.8,1.1,7.5,2.7,11,4.7C128.2,52.6,125.8,55.9,123.1,58.8"/>
	<path class="st1" d="M123.5,33c-11.6-3.2-24-2.1-34.6,4.1C79.1,43,72.3,52.2,69,62.9l13.8-6l-10.5,9.3c10.5,2,21.3,0.5,30.7-5
		C113.6,55,120.6,44.8,123.5,33"/>
	<path class="st2" d="M99.2,8.8C87.6,11.9,77.4,19,71.4,29.7c-5.7,10-6.9,21.4-4.4,32.3l8.9-12.1l-4.5,13.4
		C81.4,59.7,90,53,95.5,43.5C101.6,32.8,102.6,20.4,99.2,8.8"/>
	<path class="st3" d="M66.1,0c-8.6,8.5-13.8,19.8-13.7,32.1C52.4,43.5,57,54,64.7,62.2l1.7-15l2.8,13.8c7-8.1,11.1-18.2,11-29.2
		C80.1,19.6,74.8,8.4,66.1,0"/>
	<path class="st4" d="M33,9c-3.2,11.7-2.1,24,4.1,34.6c5.8,9.9,15,16.7,25.7,19.9l-6-13.8l9.3,10.6c2-10.5,0.5-21.3-5-30.8
		C54.9,18.9,44.7,11.9,33,9"/>
	<path class="st5" d="M8.8,33.3C11.9,45,19,55.2,29.7,61.3c9.9,5.7,21.3,6.9,32.2,4.4l-12.1-8.9l13.3,4.5
		c-3.5-10.1-10.2-18.7-19.7-24.1C32.8,31,20.4,30,8.8,33.3"/>
	<path class="st4" d="M0,66.5c8.5,8.6,19.7,13.8,32,13.7c11.4-0.1,21.9-4.7,30.1-12.3l-14.9-1.7l13.8-2.8c-8.1-7-18.1-11.1-29.1-11
		C19.6,52.5,8.4,57.8,0,66.5"/>
	<path class="st3" d="M8.9,99.7c11.6,3.2,24,2.1,34.6-4.1c9.9-5.8,16.6-15,19.9-25.8l-13.8,6l10.5-9.3c-10.5-2-21.3-0.5-30.7,5
		C18.9,77.7,11.9,88,8.9,99.7"/>
	<path class="st2" d="M33.2,123.9c11.7-3.1,21.8-10.2,27.9-20.9c5.7-10,6.9-21.4,4.4-32.3l-8.9,12.1l4.5-13.4
		C51,73,42.4,79.7,37,89.2C30.9,99.9,29.9,112.3,33.2,123.9"/>
	<path class="st1" d="M66.3,132.7c8.6-8.5,13.8-19.8,13.7-32.1C80,89.2,75.4,78.7,67.8,70.5l-1.7,15l-2.8-13.8
		c-7,8.1-11.1,18.2-11,29.2C52.3,113.1,57.6,124.3,66.3,132.7"/>
	<path class="st6" d="M99.4,123.7c3.2-11.7,2.1-24-4.1-34.6c-5.8-9.9-15-16.7-25.7-19.9l6,13.8l-9.3-10.6c-2,10.5-0.5,21.3,5,30.8
		C77.5,113.8,87.7,120.8,99.4,123.7"/>
	<path class="st1" d="M123.6,99.4c-3-11.7-10.2-21.8-20.8-27.9c-9.9-5.7-21.3-6.9-32.2-4.4L82.7,76l-13.3-4.5
		C72.8,81.6,79.5,90.2,89,95.6C99.7,101.7,112,102.7,123.6,99.4"/>
	<path class="st7" d="M132.4,66.2c-8.5-8.6-19.7-13.8-32-13.7C89,52.5,78.5,57.1,70.4,64.8l14.9,1.7l-13.8,2.8
		c8.1,7,18.1,11.1,29.1,11C112.9,80.2,124,74.9,132.4,66.2"/>
	<path class="st8" d="M130.2,49c-10.4-6.1-22.6-8.2-34.5-4.9c-11,3-20,10.2-25.9,19.7l14.8-2.3l-12.6,6.3c9.6,4.6,20.4,6,31,3.1
		C114.9,67.6,124.3,59.6,130.2,49"/>
	<path class="st9" d="M113,19.3c-12.1-0.1-23.7,4.2-32.4,13c-8.1,8.2-12.2,18.8-12.6,30l11.7-9.4L72,64.7c10.6-0.8,20.7-5,28.4-12.8
		C109.1,43.1,113.2,31.4,113,19.3"/>
	<path class="st10" d="M83.3,2.2c-10.5,6-18.4,15.5-21.6,27.4c-2.9,11.1-1.2,22.4,4.1,32.3l5.5-14L70.4,62
		c8.8-6,15.4-14.7,18.2-25.3C91.7,24.8,89.5,12.6,83.3,2.2"/>
	<path class="st11" d="M49,2.3c-6.1,10.4-8.2,22.7-5,34.5c3,11,10.2,20,19.6,25.9l-2.2-14.9l6.3,12.6c4.6-9.6,6-20.4,3.1-31
		C67.6,17.6,59.6,8.2,49,2.3"/>
	<path class="st12" d="M19.3,19.6C19.2,31.7,23.5,43.3,32.2,52c8.1,8,18.8,12.2,30,12.5l-9.4-11.7l11.7,7.8
		c-0.8-10.6-5-20.7-12.8-28.4C43.1,23.5,31.4,19.4,19.3,19.6"/>
	<path class="st11" d="M2.2,49.4c6,10.5,15.5,18.4,27.3,21.5c11.1,2.9,22.4,1.1,32.2-4.1l-14-5.5l14.1,0.8
		c-6-8.8-14.7-15.4-25.2-18.2C24.7,40.9,12.6,43.2,2.2,49.4"/>
	<path class="st10" d="M2.2,83.7c10.4,6.1,22.6,8.2,34.5,4.9c11-3,20-10.2,25.9-19.7l-14.8,2.3l12.6-6.3c-9.6-4.6-20.4-6-31-3.1
		C17.5,65.1,8.1,73.2,2.2,83.7"/>
	<path class="st9" d="M19.4,113.4c12.1,0.1,23.7-4.2,32.4-13c8.1-8.2,12.2-18.8,12.6-30l-11.7,9.4l7.8-11.8
		c-10.6,0.8-20.7,5-28.4,12.8C23.4,89.6,19.2,101.3,19.4,113.4"/>
	<path class="st8" d="M49.1,130.5c10.5-6,18.4-15.5,21.6-27.4c2.9-11.1,1.2-22.4-4.1-32.3l-5.5,14L62,70.7
		c-8.8,6-15.4,14.7-18.2,25.3C40.7,107.9,42.9,120.1,49.1,130.5"/>
	<path class="st13" d="M83.4,130.4c6.1-10.4,8.2-22.7,5-34.5c-3-11-10.2-20-19.6-25.9L71,84.8l-6.3-12.6c-4.6,9.6-6,20.4-3.1,31
		C64.9,115.1,72.9,124.5,83.4,130.4"/>
	<path class="st8" d="M113.1,113.1c0.1-12.1-4.2-23.7-12.9-32.4c-8.1-8-18.8-12.2-30-12.5l9.4,11.7l-11.7-7.8
		c0.8,10.6,5,20.7,12.8,28.4C89.4,109.2,101,113.3,113.1,113.1"/>
	<path class="st14" d="M130.2,83.3c-6-10.5-15.5-18.4-27.3-21.5c-11.1-2.9-22.4-1.1-32.2,4.1l14,5.5l-14.1-0.8
		c6,8.8,14.7,15.4,25.2,18.2C107.7,91.8,119.9,89.6,130.2,83.3"/>
</g>
</svg>
