<?xml version="1.0" encoding="utf-8"?>
<!-- Generator: Adobe Illustrator 22.1.0, SVG Export Plug-In . SVG Version: 6.00 Build 0)  -->
<svg version="1.0" id="Layer_1" xmlns="http://www.w3.org/2000/svg" xmlns:xlink="http://www.w3.org/1999/xlink" x="0px" y="0px"
	 viewBox="0 0 129 129" style="enable-background:new 0 0 129 129;" xml:space="preserve">
<style type="text/css">
	.st0{fill:#E01C8E;}
</style>
<g>
	<path class="st0" d="M77.6,40.5c-0.2-0.8-0.8-1.5-1.6-1.9c0.2-1.9-0.1-4.2-0.5-6.1c-0.4-1.6-1-3.3-1.9-5.1
		c-0.9-1.8-2.1-3.7-3.8-5.5c-1.6-1.8-3.6-3.5-5.8-4.9C44.4,4.5,17.2,19.3,19.3,38.6c-0.8,0.4-1.4,1.1-1.6,1.9
		C13,40.6,9.3,44,9.3,48.3c0,4.3,3.7,7.7,8.4,7.8c0.4,1.4,1.6,2.4,3.2,2.4c1.9,0,3.4-1.4,3.4-3.1V41.2c0-1-0.5-1.8-1.3-2.4
		c0.9-4.9,3.4-10,6.9-13.2c5.2-5.1,14.3-8,24.2-5.8c3.8,1.1,7.6,3.1,10.7,6.1c3.5,3.1,6.3,7.9,7.3,12.9c-2,1.5-1.3,2.8-1.3,16.6
		c0,1.1,0.6,2,1.5,2.5v1.2c0,0.8-0.2,1.5-0.6,2.1c-4.5,6.9-4.7,7.6-11.5,9.8c-2.1,0.7-4.5,1-6.9,1.6c-2.2-2.2-6.2-0.8-6.2,2.2
		c0,3.7,5.8,4.6,6.9,0.8c1.6-0.4,3.3-0.6,4.9-1.1c8.7-2.6,11.5-4.2,16.1-13c0.4-0.8,0.7-1.8,0.7-2.7v-0.8c0.9-0.4,1.5-1.1,1.7-2
		c4.7-0.1,8.4-3.6,8.4-7.8C86,44.1,82.2,40.6,77.6,40.5L77.6,40.5z M110.1,49.4c0-3.8-2.9-6.4-6.8-6.4c-4.7,0-5.8,0-10.5,0v11
		c2.7,0,1.8,0,4.4,0c1.5,0,2,0.4,1.9,1.9C99,70.4,99,85,99,99.6c0,0.7,0,1.3,0,2c3.8,0,7.3,0,10.9,0c0.1-0.4,0.1-0.6,0.1-0.8
		C110.1,83.7,110.1,66.5,110.1,49.4L110.1,49.4z M9.3,63.3c3,0.9,5.8,1.9,8.7,2.5c1.8,0.4,2.1,1.1,2.1,2.8c-0.1,10.1,0,20.3,0,30.4
		c0,0.8,0,1.6,0,2.5c-3.6,0-7.2,0-10.8,0C9.3,88.8,9.3,76,9.3,63.3L9.3,63.3z M1.9,105.4c15.9,0,31.6,0,47.2,0
		c0.1,0.2,0.1,0.3,0.2,0.4c0.3,3.1,0.3,3.1,3.5,3.1c5.2,0,10.3,0,15.5,0c2.6,0,2.6,0,2.7-2.6c0-0.3,0.1-0.5,0.1-0.8
		c15.4,0,30.7,0,46.2,0c0,3.2,0.2,6.5-0.1,9.8c-0.1,1.9-1.7,2.7-3.9,2.7c-22.8,0-45.7,0-68.5,0c-12.9,0-25.7,0-38.6,0
		c-2.7,0-4.2-1.3-4.2-4.1C1.8,111.1,1.9,108.3,1.9,105.4L1.9,105.4z M107.2,113.7L107.2,113.7c0.9-0.2,2-0.2,2.5-0.8
		c0.4-0.5,0.3-2.3,0.1-2.4c-1.3-0.4-2.7-0.6-4.1-0.6c-0.3,0-0.9,0.6-1,1.1C104.2,113,104.7,113.5,107.2,113.7L107.2,113.7z
		 M67.4,44.6c-0.5,6.6-2.6,15-9.5,21.4c-5.8,5.5-14.8,5.6-20.5,0c-8-7.8-10.5-17.7-9.2-28.4c0.6-5.6,4-10,9.8-11.9
		c8.5-2.8,16.8-3.1,24.2,2.9C66.5,32.2,67.5,37,67.4,44.6z"/>
</g>
</svg>
