<?xml version="1.0" encoding="utf-8"?>
<!-- Generator: Adobe Illustrator 22.1.0, SVG Export Plug-In . SVG Version: 6.00 Build 0)  -->
<svg version="1.0" id="Layer_2" xmlns="http://www.w3.org/2000/svg" xmlns:xlink="http://www.w3.org/1999/xlink" x="0px" y="0px"
	 viewBox="0 0 29.3 38.3" style="enable-background:new 0 0 29.3 38.3;" xml:space="preserve">
<style type="text/css">
	.st0{fill:#1391D2;}
</style>
<path class="st0" d="M28.3,3.8c-1.6-3.3-5.6-4.7-8.9-3.1c-3.3,1.6-4.7,5.6-3.1,8.9L28.3,3.8z M28.6,4.5l-12,5.8
	c1.6,3.3,5.6,4.7,8.9,3.1C28.8,11.9,30.2,7.8,28.6,4.5z M12,6.4c-1.8-3.1-5.8-4.1-8.9-2.2C0.1,6-0.9,10,0.9,13.1l13.2,22.1
	c1.8,3.1,5.8,4.1,8.9,2.2c3.1-1.8,4.1-5.8,2.2-8.9L12,6.4z M16.5,34.9c-0.4,0.2-0.9,0.1-1.1-0.3l-4.1-6.8c-0.2-0.4-0.1-0.9,0.3-1.1
	c0.4-0.2,0.9-0.1,1.1,0.3l4.1,6.8C17,34.1,16.9,34.7,16.5,34.9z M8.6,23.4L2,12.4C0.6,10,1.4,6.8,3.8,5.3c2.4-1.5,5.6-0.7,7.1,1.8
	l6.6,11L8.6,23.4z"/>
</svg>
